03-17 22:20:44.766 25390 25390 I chatty  : uid=1000(system) /vendor/bin/hw/android.hardware.biometrics.fingerprint@2.1-fpcservice expire 10 lines
03-17 22:20:45.173 25390 25390 E fpc_tac : fpc_tac_transfer send_cmd failed -10
03-17 22:20:45.173 25390 25390 E fpc_tac : sensor_command, Failed to send command: 4 to TA, status code: -4
03-17 22:20:45.173 25390 25390 E fpc_fingerprint_hal: fpc_hal_open failed
03-17 22:20:45.227 25390 25390 D QSEECOMAPI: QSEECom_dealloc_memory 
03-17 22:20:45.227 25390 25390 D QSEECOMAPI: QSEECom_shutdown_app, app_id = 133829
03-17 22:20:45.238 25390 25390 E fpc_hidl: Can't initialize the fingerprint HAL module !!!
03-17 22:20:45.238 25390 25390 F HidlSupport: HIDL joinRpcThreadpool without calling configureRpcThreadPool.
